456988	9	58483.00	Leona

521486	9	 6731.00	Nicea

39929	203	959482.00	Bunny

492921	2	 3134.00	Amancio

93912	43	561053.00	Roberto

593924	50	30032.00	Bola

838273	4	20123.00	Samsung

123456	5	 4030.00	Antonio Recio

49394	2	  403.00	Angel el majo

40395	10	59492.00	Larios

49391	3	  491.00	Reverendo

402145	98	10034.00	Doraemon

30040	12	 5939.00	Darell

495632	10	59199.00	Terraria

40064	300	1020304.00	Sans	

49863	1235	400302.00	Papyrus

50939	2	  403.00	Dembow

59932	3	59942.00	Humberto

59391	33	  214.00	Podenco

5030	104	59492.00	Raso

59493	13	403020.00	Doritos

59943	9	 4030.00	Regaliz

59392	2	  402.00	Tartaro

30420	75	302020.00	Rodeo

4939	12	   49.00	Planta

40302	30	493929.00	Tropezon

